{
    "results": [
        [
            {
                "awarding_toptier_agency_name": "Institute of Museum and Library Services",
                "awarding_toptier_agency_code": "474",
                "contracts": 59,
                "direct_payments": 0,
                "grants": 1785,
                "idvs": 4,
                "loans": 0,
                "other": 0
            },
            {
                "awarding_toptier_agency_name": "Nuclear Regulatory Commission",
                "awarding_toptier_agency_code": "031",
                "contracts": 1025,
                "direct_payments": 0,
                "grants": 182,
                "idvs": 51,
                "loans": 0,
                "other": 0
            },
            {
                "awarding_toptier_agency_name": "Securities and Exchange Commission",
                "awarding_toptier_agency_code": "050",
                "contracts": 1020,
                "direct_payments": 0,
                "grants": 0,
                "idvs": 121,
                "loans": 0,
                "other": 0
            },
            {
                "awarding_toptier_agency_name": "Office of Personnel Management",
                "awarding_toptier_agency_code": "024",
                "contracts": 1033,
                "direct_payments": 0,
                "grants": 0,
                "idvs": 61,
                "loans": 0,
                "other": 0
            },
            {
                "awarding_toptier_agency_name": "Executive Office of the President",
                "awarding_toptier_agency_code": "1100",
                "contracts": 502,
                "direct_payments": 0,
                "grants": 498,
                "idvs": 42,
                "loans": 0,
                "other": 0
            },
            {
                "awarding_toptier_agency_name": "U.S. International Development Finance Corporation",
                "awarding_toptier_agency_code": "077",
                "contracts": 716,
                "direct_payments": 1,
                "grants": 12,
                "idvs": 43,
                "loans": 130,
                "other": 32
            },
            {
                "awarding_toptier_agency_name": "National Archives and Records Administration",
                "awarding_toptier_agency_code": "088",
                "contracts": 620,
                "direct_payments": 0,
                "grants": 203,
                "idvs": 50,
                "loans": 0,
                "other": 0
            },
            {
                "awarding_toptier_agency_name": "Pension Benefit Guaranty Corporation",
                "awarding_toptier_agency_code": "1602",
                "contracts": 385,
                "direct_payments": 67,
                "grants": 0,
                "idvs": 50,
                "loans": 355,
                "other": 0
            },
            {
                "awarding_toptier_agency_name": "Equal Employment Opportunity Commission",
                "awarding_toptier_agency_code": "045",
                "contracts": 761,
                "direct_payments": 0,
                "grants": 0,
                "idvs": 25,
                "loans": 0,
                "other": 0
            },
            {
                "awarding_toptier_agency_name": "Consumer Financial Protection Bureau",
                "awarding_toptier_agency_code": "581",
                "contracts": 620,
                "direct_payments": 0,
                "grants": 0,
                "idvs": 89,
                "loans": 0,
                "other": 0
            }
        ]
    ],
    "page_metadata": {
        "page": 4,
        "total": 77,
        "limit": 10,
        "next": 5,
        "previous": 3,
        "hasNext": true,
        "hasPrevious": true
    },
    "messages": [

    ]
}
