{
    "results": [
        [
            {
                "awarding_toptier_agency_name": "United States Trade and Development Agency",
                "awarding_toptier_agency_code": "1133",
                "contracts": 240,
                "direct_payments": 0,
                "grants": 0,
                "idvs": 2,
                "loans": 0,
                "other": 0
            },
            {
                "awarding_toptier_agency_name": "National Transportation Safety Board",
                "awarding_toptier_agency_code": "424",
                "contracts": 222,
                "direct_payments": 0,
                "grants": 0,
                "idvs": 18,
                "loans": 0,
                "other": 0
            },
            {
                "awarding_toptier_agency_name": "National Credit Union Administration",
                "awarding_toptier_agency_code": "025",
                "contracts": 0,
                "direct_payments": 231,
                "grants": 0,
                "idvs": 0,
                "loans": 5,
                "other": 0
            },
            {
                "awarding_toptier_agency_name": "Merit Systems Protection Board",
                "awarding_toptier_agency_code": "389",
                "contracts": 221,
                "direct_payments": 0,
                "grants": 0,
                "idvs": 10,
                "loans": 0,
                "other": 0
            },
            {
                "awarding_toptier_agency_name": "Inter-American Foundation",
                "awarding_toptier_agency_code": "164",
                "contracts": 0,
                "direct_payments": 0,
                "grants": 230,
                "idvs": 0,
                "loans": 0,
                "other": 0
            },
            {
                "awarding_toptier_agency_name": "Denali Commission",
                "awarding_toptier_agency_code": "513",
                "contracts": 0,
                "direct_payments": 0,
                "grants": 194,
                "idvs": 0,
                "loans": 0,
                "other": 0
            },
            {
                "awarding_toptier_agency_name": "National Labor Relations Board",
                "awarding_toptier_agency_code": "420",
                "contracts": 185,
                "direct_payments": 0,
                "grants": 0,
                "idvs": 8,
                "loans": 0,
                "other": 0
            },
            {
                "awarding_toptier_agency_name": "International Trade Commission",
                "awarding_toptier_agency_code": "034",
                "contracts": 174,
                "direct_payments": 0,
                "grants": 0,
                "idvs": 4,
                "loans": 0,
                "other": 0
            },
            {
                "awarding_toptier_agency_name": "Gulf Coast Ecosystem Restoration Council",
                "awarding_toptier_agency_code": "471",
                "contracts": 0,
                "direct_payments": 0,
                "grants": 114,
                "idvs": 0,
                "loans": 0,
                "other": 0
            },
            {
                "awarding_toptier_agency_name": "Federal Election Commission",
                "awarding_toptier_agency_code": "360",
                "contracts": 88,
                "direct_payments": 0,
                "grants": 0,
                "idvs": 9,
                "loans": 0,
                "other": 0
            }
        ]
    ],
    "page_metadata": {
        "page": 6,
        "total": 77,
        "limit": 10,
        "next": 7,
        "previous": 5,
        "hasNext": true,
        "hasPrevious": true
    },
    "messages": [

    ]
}
