{
    "results": [
        [
            {
                "awarding_toptier_agency_name": "Consumer Product Safety Commission",
                "awarding_toptier_agency_code": "061",
                "contracts": 660,
                "direct_payments": 0,
                "grants": 19,
                "idvs": 26,
                "loans": 0,
                "other": 0
            },
            {
                "awarding_toptier_agency_name": "Millennium Challenge Corporation",
                "awarding_toptier_agency_code": "524",
                "contracts": 522,
                "direct_payments": 0,
                "grants": 63,
                "idvs": 25,
                "loans": 0,
                "other": 0
            },
            {
                "awarding_toptier_agency_name": "Appalachian Regional Commission",
                "awarding_toptier_agency_code": "309",
                "contracts": 0,
                "direct_payments": 0,
                "grants": 601,
                "idvs": 0,
                "loans": 0,
                "other": 0
            },
            {
                "awarding_toptier_agency_name": "Government Accountability Office",
                "awarding_toptier_agency_code": "005",
                "contracts": 552,
                "direct_payments": 0,
                "grants": 0,
                "idvs": 48,
                "loans": 0,
                "other": 0
            },
            {
                "awarding_toptier_agency_name": "National Gallery of Art",
                "awarding_toptier_agency_code": "3302",
                "contracts": 466,
                "direct_payments": 0,
                "grants": 0,
                "idvs": 36,
                "loans": 0,
                "other": 0
            },
            {
                "awarding_toptier_agency_name": "Court Services and Offender Supervision Agency",
                "awarding_toptier_agency_code": "9553",
                "contracts": 440,
                "direct_payments": 0,
                "grants": 0,
                "idvs": 15,
                "loans": 0,
                "other": 0
            },
            {
                "awarding_toptier_agency_name": "Federal Trade Commission",
                "awarding_toptier_agency_code": "029",
                "contracts": 437,
                "direct_payments": 0,
                "grants": 0,
                "idvs": 9,
                "loans": 0,
                "other": 0
            },
            {
                "awarding_toptier_agency_name": "Peace Corps",
                "awarding_toptier_agency_code": "1125",
                "contracts": 368,
                "direct_payments": 0,
                "grants": 0,
                "idvs": 36,
                "loans": 0,
                "other": 0
            },
            {
                "awarding_toptier_agency_name": "Commodity Futures Trading Commission",
                "awarding_toptier_agency_code": "339",
                "contracts": 381,
                "direct_payments": 0,
                "grants": 0,
                "idvs": 6,
                "loans": 0,
                "other": 0
            },
            {
                "awarding_toptier_agency_name": "District of Columbia Courts",
                "awarding_toptier_agency_code": "349",
                "contracts": 282,
                "direct_payments": 0,
                "grants": 0,
                "idvs": 0,
                "loans": 0,
                "other": 0
            }
        ]
    ],
    "page_metadata": {
        "page": 5,
        "total": 77,
        "limit": 10,
        "next": 6,
        "previous": 4,
        "hasNext": true,
        "hasPrevious": true
    },
    "messages": [

    ]
}
