{
    "results": [
        [
            {
                "awarding_toptier_agency_name": "Federal Mediation and Conciliation Service",
                "awarding_toptier_agency_code": "093",
                "contracts": 77,
                "direct_payments": 0,
                "grants": 0,
                "idvs": 16,
                "loans": 0,
                "other": 0
            },
            {
                "awarding_toptier_agency_name": "Federal Mine Safety and Health Review Commission",
                "awarding_toptier_agency_code": "368",
                "contracts": 82,
                "direct_payments": 0,
                "grants": 0,
                "idvs": 0,
                "loans": 0,
                "other": 0
            },
            {
                "awarding_toptier_agency_name": "Delta Regional Authority",
                "awarding_toptier_agency_code": "517",
                "contracts": 0,
                "direct_payments": 0,
                "grants": 79,
                "idvs": 0,
                "loans": 0,
                "other": 0
            },
            {
                "awarding_toptier_agency_name": "Election Assistance Commission",
                "awarding_toptier_agency_code": "525",
                "contracts": 0,
                "direct_payments": 0,
                "grants": 69,
                "idvs": 0,
                "loans": 0,
                "other": 0
            },
            {
                "awarding_toptier_agency_name": "Federal Maritime Commission",
                "awarding_toptier_agency_code": "065",
                "contracts": 66,
                "direct_payments": 0,
                "grants": 0,
                "idvs": 2,
                "loans": 0,
                "other": 0
            },
            {
                "awarding_toptier_agency_name": "Occupational Safety and Health Review Commission",
                "awarding_toptier_agency_code": "432",
                "contracts": 61,
                "direct_payments": 0,
                "grants": 0,
                "idvs": 0,
                "loans": 0,
                "other": 0
            },
            {
                "awarding_toptier_agency_name": "Federal Labor Relations Authority",
                "awarding_toptier_agency_code": "054",
                "contracts": 54,
                "direct_payments": 0,
                "grants": 0,
                "idvs": 4,
                "loans": 0,
                "other": 0
            },
            {
                "awarding_toptier_agency_name": "Council of the Inspectors General on Integrity and Efficiency",
                "awarding_toptier_agency_code": "542",
                "contracts": 40,
                "direct_payments": 0,
                "grants": 0,
                "idvs": 0,
                "loans": 0,
                "other": 0
            },
            {
                "awarding_toptier_agency_name": "Selective Service System",
                "awarding_toptier_agency_code": "090",
                "contracts": 39,
                "direct_payments": 0,
                "grants": 0,
                "idvs": 0,
                "loans": 0,
                "other": 0
            },
            {
                "awarding_toptier_agency_name": "Defense Nuclear Facilities Safety Board",
                "awarding_toptier_agency_code": "347",
                "contracts": 35,
                "direct_payments": 0,
                "grants": 0,
                "idvs": 1,
                "loans": 0,
                "other": 0
            }
        ]
    ],
    "page_metadata": {
        "page": 7,
        "total": 77,
        "limit": 10,
        "next": 8,
        "previous": 6,
        "hasNext": true,
        "hasPrevious": true
    },
    "messages": [

    ]
}
